{"data":{"current_page":1,"data":[{"id":"d451bce0-c372-4550-8492-9339edb96c2a","title":"Capítulo 9","chapter":9,"volume":3,"language":["pt-br"],"publish_date":"10 de out. de 2023","pages":63,"external_url":null,"is_external":false},{"id":"296705aa-0a1c-4c80-bd83-e590ea99dc47","title":"Capítulo 8","chapter":8,"volume":3,"language":["pt-br"],"publish_date":"10 de out. de 2023","pages":42,"external_url":null,"is_external":false},{"id":"86048c9c-bad8-487f-8f3c-5f9b04f8c036","title":"Capítulo 7","chapter":7,"volume":2,"language":["pt-br"],"publish_date":"10 de out. de 2023","pages":38,"external_url":null,"is_external":false},{"id":"4b175b9e-f93d-4d39-bba5-3f3040a3da40","title":"Capítulo 6","chapter":6,"volume":2,"language":["pt-br"],"publish_date":"10 de out. de 2023","pages":49,"external_url":null,"is_external":false},{"id":"db1c106b-e01b-471c-83ea-089d7fe277b4","title":"Capítulo 5","chapter":5,"volume":2,"language":["pt-br"],"publish_date":"10 de out. de 2023","pages":60,"external_url":null,"is_external":false}],"from":1,"last_page":2,"next":true,"per_page":5,"prev":false,"to":5,"total":9},"timestamp":1750765150249,"etag":"13ce7875022b2785e6292a27b3460063"}